{
  "project_info": {
    "project_number": "421751175207",
    "firebase_url": "https://meeloapp-ba2fc.firebaseio.com",
    "project_id": "meeloapp-ba2fc",
    "storage_bucket": "meeloapp-ba2fc.appspot.com"
  },
  "client": [
    {
      "client_info": {
        "mobilesdk_app_id": "1:421751175207:android:aaad8b3b2513d114",
        "android_client_info": {
          "package_name": "com.meelo.mobi"
        }
      },
      "oauth_client": [
        {
          "client_id": "421751175207-m8bbe981vnhnhqalo6dqoups7ereje2v.apps.googleusercontent.com",
          "client_type": 1,
          "android_info": {
            "package_name": "com.meelo.mobi",
            "certificate_hash": "258d1bbbdb940f5613c7731200a30510e5d30815"
          }
        },
        {
          "client_id": "421751175207-dlhe57boho6k00qjrp8gfjadtj8bs9ue.apps.googleusercontent.com",
          "client_type": 1,
          "android_info": {
            "package_name": "com.meelo.mobi",
            "certificate_hash": "da01ca9cb32d260d101cd8761ea33e09d3526991"
          }
        },
        {
          "client_id": "421751175207-rhfdfoc7p90gm3rl0lqlffgna6n8ktvk.apps.googleusercontent.com",
          "client_type": 3
        }
      ],
      "api_key": [
        {
          "current_key": "AIzaSyB9XkVEv0dFTj2y_R507do1x50UzRWvqbw"
        }
      ],
      "services": {
        "analytics_service": {
          "status": 1
        },
        "appinvite_service": {
          "status": 2,
          "other_platform_oauth_client": [
            {
              "client_id": "421751175207-rhfdfoc7p90gm3rl0lqlffgna6n8ktvk.apps.googleusercontent.com",
              "client_type": 3
            }
          ]
        },
        "ads_service": {
          "status": 2
        }
      }
    }
  ],
  "configuration_version": "1"
}